5
10
18
21
18
2
4
13
5
25
8
1
18
21
4
10
23
26
5
1
18
19
4
12
21
9
20
17
5
17
16
1
6
30
3
4
26
3
20
2
20
1
5
3
9
9
15
30
26
9
8
1
12
1
5
28
24
27
13
10
13
9
4
9
22
9
21
14
11
1
13
21
12
10
10
28
14
2
23
1
22
28
6
10
11
30
17
3
13
29
24
2
2
3
5
5
5
19
12
17
2
18
12
29
19
1
11
9
10
9
11
14
11
28
7
21
5
30
6
30
4
13
9
12
5
25
7
1
4
12
19
14
19
11
12
14
12
9
20
2
18
19
15
3
14
25
14
19
18
9
14
11
20
17
11
3
3
26
4
27
11
9
8
11
19
1
14
2
4
17
8
3
7
1
6
14
4
25
12
21
21
26
7
17
4
27
20
25
13
9
16
10
3
19
4
9
5
20
21
3
2
1
21
13
5
2
0
21
13
18
